week_05_uvm_communication/sim/vending_pass.log
0000 0 x 0 0
0000 0 0 0 0
0000 0 0 0 0
1000 0 0 0 0
0100 0 1 0 0
0000 0 3 0 0
0001 0 3 0 0
0010 0 3 0 0
0010 0 8 0 0
0000 0 d 0 0
0001 0 d 0 0
0000 1 2 1 0
0000 1 2 0 0
0000 2 2 0 0
0000 3 2 0 1
0000 3 1 0 0
0000 4 1 0 0
0000 3 1 0 1
0000 3 0 0 0
0000 4 0 0 0
0000 0 0 0 0
VendingMachineTb.sv:65: $stop called at 215 (1s)
